Hands-On Machine Learning with R
…
AmesHousing::ames_raw %>% 
  filter(is.na(`Garage Type`)) %>% 
  select(`Garage Type`, `Garage Cars`, `Garage Area`)

# A tibble: 157 × 3
   `Garage Type` `Garage Cars` `Garage Area`
   <chr>                 <int>         <int>
 1 <NA>                      0             0
 2 <NA>                      0             0
 3 <NA>                      0             0
 4 <NA>                      0             0
 5 <NA>                      0             0
 6 <NA>                      0             0
 7 <NA>                      0             0
 8 <NA>                      0             0
 9 <NA>                      0             0
10 <NA>                      0             0
# … with 147 more rows
…
Categorical feature engineering. Lumping

‘Lumping’ means collapsing data into less categories

Useful when some of your categories are almost empty

count(ames_train, Neighborhood) %>% arrange(n)

# A tibble: 28 × 2
   Neighborhood            n
   <fct>               <int>
 1 Landmark                1
 2 Green_Hills             2
 3 Greens                  3
 4 Blueste                 8
 5 Veenker                15
 6 Northpark_Villa        17
 7 Bloomington_Heights    18
 8 Meadow_Village         22
 9 Briardale              23
10 Clear_Creek            26
# … with 18 more rows
…
# Apply this blue print --> you will learn about this at 
# the end of the chapter
apply_2_training <- prep(lumping, training = ames_train) %>%
  bake(ames_train)

# New distribution of Neighborhood
count(apply_2_training, Neighborhood) %>% arrange(n)

# A tibble: 22 × 2
   Neighborhood                                n
   <fct>                                   <int>
 1 Meadow_Village                             22
 2 Briardale                                  23
 3 Clear_Creek                                26
 4 South_and_West_of_Iowa_State_University    32
 5 Stone_Brook                                40
 6 Northridge                                 51
 7 Timberland                                 52
 8 other                                      64
 9 Brookside                                  74
10 Crawford                                   75
# … with 12 more rows
…
